<svg viewBox="0 0 204 174" fill="none" xmlns="http://www.w3.org/2000/svg">
<path d="M74.7841 122V133.011H28.9318V122H74.7841Z" fill="#4D375D"/>
<path d="M80.5455 122V69.6364H94.625V78.7727H95.1705C96.125 75.5227 97.7159 73.0682 99.9432 71.4091C102.193 69.7273 104.795 68.8864 107.75 68.8864C109.159 68.8864 110.466 69.0568 111.67 69.3977C112.875 69.7386 113.955 70.2045 114.909 70.7955L110.545 82.7955C109.864 82.4545 109.114 82.1705 108.295 81.9432C107.5 81.6932 106.602 81.5682 105.602 81.5682C102.67 81.5682 100.182 82.5682 98.1364 84.5682C96.1136 86.5682 95.0909 89.1705 95.0682 92.375V122H80.5455ZM138.56 122.852C134.582 122.852 130.991 121.83 127.787 119.784C124.582 117.716 122.037 114.682 120.151 110.682C118.264 106.659 117.321 101.727 117.321 95.8864C117.321 89.8864 118.287 84.8977 120.219 80.9205C122.173 76.9205 124.753 73.9318 127.957 71.9545C131.185 69.9545 134.707 68.9545 138.526 68.9545C141.457 68.9545 143.901 69.4545 145.855 70.4545C147.832 71.4318 149.423 72.6477 150.628 74.1023C151.855 75.5568 152.787 77 153.423 78.4318H153.866V52.1818H168.355V122H154.037V113.614H153.423C152.764 115.068 151.81 116.511 150.56 117.943C149.31 119.352 147.696 120.523 145.719 121.455C143.764 122.386 141.378 122.852 138.56 122.852ZM143.162 111.295C146.662 111.295 149.366 109.886 151.276 107.068C153.207 104.227 154.173 100.477 154.173 95.8182C154.173 91.1364 153.219 87.4205 151.31 84.6705C149.401 81.8977 146.685 80.5114 143.162 80.5114C139.571 80.5114 136.832 81.9318 134.946 84.7727C133.082 87.5909 132.151 91.2727 132.151 95.8182C132.151 100.386 133.094 104.114 134.98 107C136.866 109.864 139.594 111.295 143.162 111.295Z" fill="#EB596E"/>
<rect x="138" y="30" width="31" height="13" fill="#CBCBCB"/>
</svg>
