<svg viewBox="0 0 1166 238" fill="none" xmlns="http://www.w3.org/2000/svg">
<path d="M654.528 231.891C652.002 231.891 649.961 229.855 649.961 227.336V175.773H580.561C578.693 175.773 576.998 174.635 576.306 172.874C575.614 171.114 576.098 169.147 577.482 167.87L608.826 139.397C623.184 126.489 632.871 114.927 637.749 104.953C642.523 95.1172 644.979 84.3492 644.979 72.9945C644.979 60.4664 641.485 49.2842 634.566 39.6897C627.577 29.9916 617.683 22.4333 605.159 17.1528C592.427 11.8034 577.516 9.07686 560.841 9.07686C538.976 9.07686 520.087 13.46 504.76 22.0882C490.922 29.8881 479.989 40.3454 472.171 53.2532L519.741 76.998C523.062 71.6485 527.421 67.3344 532.714 64.1247C539.253 60.1557 546.38 58.154 553.887 58.154C561.844 58.154 568.141 60.0177 572.638 63.7451C577.378 67.6795 579.765 73.098 579.765 79.897C579.765 84.9704 578.451 90.1818 575.821 95.3933C573.227 100.536 568.418 106.368 561.083 113.236L481.754 186.438C479.92 188.129 477.014 188.026 475.319 186.196C473.624 184.367 473.727 181.468 475.561 179.777L554.856 106.61C561.291 100.57 565.615 95.4278 567.656 91.3553C569.628 87.4208 570.632 83.5899 570.632 79.9316C570.632 75.859 569.421 72.9255 566.792 70.7512C563.989 68.4388 559.63 67.2654 553.887 67.2654C548.006 67.2654 542.609 68.7839 537.454 71.9246C532.334 75.0307 528.493 79.3103 525.726 85.0394C525.207 86.1439 524.238 86.9722 523.096 87.3518C521.955 87.7314 520.675 87.6624 519.602 87.1102L463.798 59.2929C462.691 58.7407 461.861 57.7744 461.48 56.6009C461.1 55.4275 461.238 54.1505 461.792 53.0806C470.51 36.7561 483.449 23.6758 500.263 14.2193C516.973 4.76276 537.35 0 560.806 0C578.693 0 594.78 2.9681 608.653 8.80075C622.734 14.7369 633.943 23.3651 641.935 34.4092C649.996 45.5914 654.078 58.5682 654.078 73.029C654.078 85.7642 651.345 97.8437 645.948 108.957C640.586 119.966 630.172 132.494 614.95 146.162L592.324 166.697H654.528C657.053 166.697 659.095 168.733 659.095 171.252V227.336C659.095 229.855 657.053 231.891 654.528 231.891Z" fill="#07B4A6"/>
<path d="M1061.14 238L654.459 232.996H42.1729C39.6474 232.996 37.6062 230.959 37.6062 228.44V69.7503H4.56672C2.04118 69.7503 0 67.7141 0 65.2292V9.56008C0 7.04065 2.04118 5.00439 4.56672 5.00439H116.174C118.7 5.00439 120.741 7.04065 120.741 9.56008V181.019C120.741 183.539 118.7 185.575 116.174 185.575C113.649 185.575 111.608 183.539 111.608 181.019V14.1158H9.13343V60.6735H42.1729C44.6985 60.6735 46.7396 62.7097 46.7396 65.2292V223.919H654.528L1061.21 228.923C1082.73 228.923 1100.96 225.506 1115.32 218.742C1129.5 212.046 1140.09 203.315 1146.8 192.754C1153.51 182.193 1156.9 170.631 1156.9 158.448C1156.9 144.194 1152.68 131.839 1144.31 121.796C1135.9 111.683 1123.58 104.539 1107.71 100.639C1106.11 100.26 1104.87 99.0172 1104.42 97.4641C1103.97 95.8765 1104.42 94.1854 1105.56 93.0464L1145 53.0807V14.1158H990.493V60.6735H1064.32C1066.16 60.6735 1067.82 61.7779 1068.54 63.469C1069.27 65.1601 1068.89 67.0928 1067.61 68.4043L1036.61 99.9145V138.845H1061.21C1086.5 138.845 1091.79 149.475 1091.79 158.414C1091.79 165.489 1088.26 171.183 1081.62 174.876C1075.74 178.155 1068.02 179.846 1058.68 179.846C1048.72 179.846 1038.27 178.431 1027.58 175.635C1018.55 173.289 1009.9 169.941 1001.84 165.696L986.099 199.898C985.061 202.176 982.363 203.177 980.045 202.141C977.761 201.106 976.758 198.379 977.796 196.102L995.613 157.447C996.132 156.274 997.17 155.411 998.381 154.997C999.592 154.617 1000.94 154.755 1002.05 155.411C1010.63 160.381 1020 164.246 1029.9 166.835C1039.83 169.423 1049.51 170.735 1058.68 170.735C1066.43 170.735 1072.62 169.458 1077.16 166.938C1080.96 164.798 1082.66 162.176 1082.66 158.414C1082.66 155.825 1082.66 147.956 1061.21 147.956H1032.04C1029.52 147.956 1027.48 145.92 1027.48 143.401V98.0508C1027.48 96.8428 1027.96 95.7039 1028.79 94.8756L1053.46 69.7848H985.961C983.435 69.7848 981.394 67.7486 981.394 65.2292V9.56008C981.394 7.04065 983.435 5.00439 985.961 5.00439H1149.6C1152.13 5.00439 1154.17 7.04065 1154.17 9.56008V54.9098C1154.17 56.1178 1153.68 57.2567 1152.85 58.085L1117.5 93.9093C1131.75 98.603 1143.13 105.989 1151.4 115.928C1161.16 127.663 1166.1 141.951 1166.1 158.379C1166.1 172.322 1162.23 185.506 1154.58 197.551C1146.94 209.596 1135.07 219.467 1119.3 226.921C1103.59 234.273 1084.08 238 1061.14 238Z" fill="url(#paint0_linear)"/>
<defs>
<linearGradient id="paint0_linear" x1="0" y1="121.505" x2="1166.01" y2="121.505" gradientUnits="userSpaceOnUse">
<stop stop-color="#EF4269"/>
<stop offset="0.0427" stop-color="#E5476B"/>
<stop offset="0.1164" stop-color="#C95671"/>
<stop offset="0.2123" stop-color="#9B6E7A"/>
<stop offset="0.3266" stop-color="#5C8F86"/>
<stop offset="0.4552" stop-color="#0DB896"/>
<stop offset="0.4751" stop-color="#00BF99"/>
<stop offset="0.6679" stop-color="#13A2BC"/>
<stop offset="1" stop-color="#3869FF"/>
</linearGradient>
</defs>
</svg>
